{
  "forms": [
    {
      "name": "Reviews",
      "slug": "reviews",
      "template": "form.review",
      "fields": [
        {
          "name": "service",
          "label": "<h2>Rating 1</h2> <p>We are always striving to make our sevice better. How would rate our service?</p>",
          "field_type": "rating",
          "custom_class": "",
          "custom_attributes": "onchange=\"nextStep(this)\"",
          "required": false
        },
        {
          "name": "form_head",
          "label": "We are sorry we did not meet your expectations. What could we do to improve?",
          "field_type": "html",
          "custom_class": "step step2",
          "required": false
        },
        {
          "name": "note",
          "label": "Feedback",
          "field_type": "textarea",
          "custom_class": "form-control",
          "required": false
        },
        {
          "name": "name",
          "label": "Name",
          "field_type": "text",
          "custom_class": "form-control",
          "required": false
        },
        {
          "name": "email",
          "label": "Email",
          "field_type": "email",
          "custom_class": "form-control",
          "required": false
        },
        {
          "name": "cell",
          "label": "Cell",
          "field_type": "text",
          "custom_class": "step step2 form-control",
          "required": false
        }
      ]
    }
  ]
}